{
	"GetActivitiesResponse":
	{
	  "responseStatus": "SUCCESS",
	  "product": [
	    {
	      "productID": "100000002783668857",
	      "productCode": "3105",
	      "productType": {
	        "productTypeID": "31",
	        "productTypeName": "Onboard Activities",
	        "productType": "ACTIVITIES"
	      },
	      "productClass": "SERVICE",
	      "productCategory": [
	  		{ 
	  			"categoryid": "98765",
	  			"categoryDescription": "Activity",
	  			"productTags": [
	  				{
	  					"tagID": "1234",
	  					"description":"Dreamworks"
	  				}
	  			]
	  		}
		   ],
	      "productRank": 1,
	      "isReservationRequired": true,
	      "isScheduable": false,
	      "activityLevel": null,
	      "productLocation": {
	        "locationCode": "DWCB",
	        "locationType": "ONBOARD_ACTIVITY_VENUE",
	        "operatingHoursStart": 0,
	        "operatingHoursEnd": 0
	      },
	      "productDuration": {
	        "isAtYourLeisure": false,
	        "durationInMinutes": 60,
	        "leadTimeInMinutes": 0,
	        "lagTimeInMinutes": 0
	      },
	      "costType": null,
	      "startingFromPrice": {
	        "currency": "USD",
	        "adultPrice": 10,
	        "childPrice": 0,
	        "infantPrice": 0
	      },
	      "advisements": [],
	      "preferences": [],
	      "restrictions": [],
	      "productTitle": "DreamWorks Character Breakfast",
	      "productShortDescription": "Breakfast time is playtime with Shrek, friends and the DreamWorks family.",
	      "productLongDescription": null,
	      "productMedia": {
		    	"mediaItem": [
	  				{
	  					"mediaType":"banner_image",
	  					"mediaRefLink":"/media/royal/shared_assets/images/onboard-experience/dreamworks-character-breakfast-3160-hero.jpg"
	  				}
					]
			  }
	    },
	     {
	      "productID": "100000002354772397",
	      "productCode": "2806",
	      "productType": {
	        "productTypeID": "28",
	        "productTypeName": "Flow Rider",
	        "productType": "ACTIVITIES"
	      },
	      "productClass": "SERVICE",
	      "productCategory": [
	  		{ 
	  			"categoryid": "98765",
	  			"categoryDescription": "Activity",
	  			"productTags": [
	  				{
	  					"tagID": "9234",
	  					"description":"Water Sports"
	  				}
	  			]
	  		}
		   ],
	      "productRank": 1,
	      "isReservationRequired": true,
	      "isScheduable": false,
	      "activityLevel": null,
	      "productLocation": {
	        "locationID": "SPRTSDK_AL",
	        "locationCode": "SPRTSDK_AL",
	        "locationType": null,
	        "operatingHoursStart": 0,
	        "operatingHoursEnd": 0
	      },
	      "productDuration": {
	        "isAtYourLeisure": false,
	        "durationInMinutes": 60,
	        "leadTimeInMinutes": 0,
	        "lagTimeInMinutes": 0
	      },
	      "costType": null,
	      "startingFromPrice": {
	        "currency": "USD",
	        "adultPrice": 345,
	        "childPrice": 345,
	        "infantPrice": 0
	      },
	      "advisements": [
	        {
	          "advisementID": "100000002227693613",
	          "advisementName": "FlowRider Advisement",
	          "advisementType": null,
	          "advisementTitle": "FlowRider Advisement",
	          "advisementDescription": "FlowRider Advisement",
	          "advisementMedia": null
	        },
	        {
	          "advisementID": "100000002227693636",
	          "advisementName": "Sports Waiver",
	          "advisementType": null,
	          "advisementTitle": "Sports Waiver",
	          "advisementDescription": "Sports Waiver",
	          "advisementMedia": null
	        }
	      ],
	      "preferences": [],
	      "restrictions": [
	        {
	          "restrictionID": "4",
	          "restrictionType": "HEIGHT",
	          "isMandatory": true,
	          "restrictionDisplayText": "You must be at least 52\" to boogie board and at least 58\" tall to stand up surf.",
	          "restrictionTitle": "4",
	          "restrictionDescription": "Are you at least 52\" tall?",
	          "restrictionQuestion": "Are you at least 52\" tall?",
	          "restrictionAnswers":[
	    				{
	    					"restrictionAnswerDisplayText":"YES"
	    				},
	    				{
	    					"restrictionAnswerDisplayText":"NO"
	    				}
	    			],
	          "restrictionMedia": {
	  					"mediaItem": [
	  						{
	  						"mediaType":"icon",
	  						"mediaRefLink":"/royal/shared_assets/icons/advisement_meals_r.png"
	  						}
	  					]
				  	}
	        }
	      ],
	      "productTitle": "FlowRider® Morning Lesson",
	      "productShortDescription": "Let our FlowRider instructors teach you how to master the only surf simulator on a cruise ship. Sign up for a private morning lesson to get started.",
	      "productLongDescription": null,
	      "productMedia": {
	        "mediaItem": [
	          {
	            "mediaType": "headline_image",
	            "mediaRefLink": "media/royal/shared_assets/images/onboard-experience/flowrider/flowrider-lessons-2806-mosaic.jpg"
	          },
	          {
	            "mediaType": "banner_image",
	            "mediaRefLink": "media/royal/shared_assets/images/onboard-experience/flowrider/flowrider-lessons-2806-hero.jpg"
	          }
	        ]
	      }
	    }
	  ]
	}
}