{
	"GetExcursionsResponse":
	{
	  "responseStatus": "SUCCESS",
	  "product": [
	    {
	      "productID": "100000003007969595",
	      "productCode": "CZ1X",
	      "productType": {
	        "productTypeID": "1",
	        "productTypeName": "Shore Excursion",
	        "productType": "SHOREX"
	      },
	      "productClass": "SERVICE",
	      "productCategory": [
			{ 
				"categoryid": "12345",
				"categoryDescription": "Shore Excursions",
				"productTags": [
					{
						"tagID": "1234",
						"description":"Adventure"
					}
				]
			}
		   ],
	      "productRank": 1,
	      "isReservationRequired": true,
	      "isScheduable": false,
	      "activityLevel": {
			"activityLevelID": "123",
			"activityLevelTitle": "Mild",
			"activityLevelDescription": "To fully participate may require leisurely walking over primarily even surfaces. There may be a limited number of steps, a minimal amount of cobblestones or uneven surfaces, and some standing for extended periods of time.",
			"activityLevelMedia": {
				"mediaItem": [
					{
						"mediaType":"icon",
						"mediaRefLink":"media/royal/shared_assets/icons/activity-level-mild-blue.png"
					},
					{
						"mediaType":"title",
						"mediaRefLink":"/media/royal/shared_assets/icons/activity-level-mild-red.png"
					}
					
				]
			}
		  },  
	      "productLocation": {
	        "locationCode": "CZM",
	        "locationType": "PORT",
	        "operatingHoursStart": 0,
	        "operatingHoursEnd": 0
	      },
	      "productDuration": {
	        "isAtYourLeisure": false,
	        "durationInMinutes": 390,
	        "leadTimeInMinutes": 0,
	        "lagTimeInMinutes": 45
	      },
	      "costType": null,
	      "startingFromPrice": {
	        "currency": "USD",
	        "adultPrice": 84,
	        "childPrice": 74,
	        "infantPrice": 0
	      },
	      "advisements": [
	        {
	          "advisementID": "200000000002684248",
	          "advisementName": "Meals",
	          "advisementType": "MEALS",
	          "advisementTitle": "Meals",
	          "advisementDescription": "Most tour departures complement the ship's meal service hours. If a meal is served on an excursion, it will be designated with this symbol.",
	          "advisementMedia": {
				"mediaItem": [
					{
						"mediaType":"icon",
						"mediaRefLink":"/royal/shared_assets/icons/advisement_meals_r.png"
					}
					
				]
			  }
	        },
	        {
	          "advisementID": "200000000002684250",
	          "advisementName": "Shopping",
	          "advisementType": "SHOPPING",
	          "advisementTitle": "Shopping",
	          "advisementDescription": "Time permitting, limited shopping is available during the tour.",
	          "advisementMedia": {
				"mediaItem": [
					{
						"mediaType":"icon",
						"mediaRefLink":"/media/royal/shared_assets/icons/advisement_shopping_r.png"
					}
					
				]
			  }
	        }
	      ],
	      "preferences": [
	        {
	          "preferenceID": "6",
	          "preferenceName": "Language",
	          "mandatoryPreferenceFlag": true,
	          "preferenceType": "TOUR_LANGUAGE",
	          "preferenceValue": [
	            {
	              "preferenceValueID": "905",
	              "preferenceValueName": "English",
	              "PreferenceValueCode": "ENG"
	            },
	            {
	              "preferenceValueID": "906",
	              "preferenceValueName": "Spanish",
	              "PreferenceValueCode": "SPA"
	            },
	            {
	              "preferenceValueID": "907",
	              "preferenceValueName": "German",
	              "PreferenceValueCode": "GER"
	            },
	            {
	              "preferenceValueID": "908",
	              "preferenceValueName": "Portuguese",
	              "PreferenceValueCode": "POR"
	            },
	            {
	              "preferenceValueID": "909",
	              "preferenceValueName": "Italian",
	              "PreferenceValueCode": "ITA"
	            },
	            {
	              "preferenceValueID": "910",
	              "preferenceValueName": "French",
	              "PreferenceValueCode": "FRE"
	            }
	          ]
	        }
	      ],
	      "restrictions": [],
	      "productTitle": "Underground Mayan River Cenote & Famous 5th Street Shopping and Beach",
	      "productShortDescription": "Explore mystical Mayan caverns and swim in sacred waters, followed by a visit to the hip shopping scene on Play Del Carmen?s famous Fifth Avenue.",
	      "productLongDescription": "<p>Ghent is home to one of the world's greatest oil paintings, Van Eyck's 'Adoration of the Mystic Lamb.'  This dynamic modern city has a center straight out of the Middle Ages.  It was the weavers from Ghent, joined by others from Bruges, who took up arms to defeat the French in 1302.<P>Begin your walking tour at St. Michael's Bridge, with its view of Ghent's three glorious medieval steeples.  The closest is that of the early Gothic St. Nicholas Church.  Behind is the Belfry dating from 1314 and in the background rises the honey-colored tower of St. Bavo's Cathedral.  The tour continues with a walk through the old town pass the 300-foot Belfry and on to St. Bavo's Cathedral.  Free time will be given to browse through the lace and chocolate shops around the Cathedral before boarding the coach for the return to the ship.<P>Note:  Guests must be able to walk approximately 0.5 mile over cobblestone streets and several steps.  Comfortable walking shoes are recommended.  Travel time between Zeebrugge and Ghent is approximately 1 hour each way, depending on traffic conditions.  The order of the tour may be altered at the discretion of the guide.",
	      "productMedia": {
			"mediaItem": [
					{
						"mediaType":"banner_image",
						"mediaRefLink":"/media/royal/shared_assets/images/shore-excursions/cozumel/underground-mayan-river-cenote-and-famous-5th-street-shopping-and-beach-CZ1X-hero.jpg"
					},
					{
						"mediaType":"title",
						"mediaRefLink":"/media/royal/shared_assets/icons/activity-level-mild-red.png"
					}
					
				]
			}
	    },
	    {
	      "productID": "100000002998282872",
	      "productCode": "FYY4",
	      "productType": {
	        "productTypeID": "1",
	        "productTypeName": "Shore Excursion",
	        "productType": "SHOREX"
	      },
	      "productClass": "SERVICE",
	      "productCategory": [
			{ 
				"categoryid": "12345",
				"categoryDescription": "Shore Excursions",
				"productTags": [
					{
						"tagID": "1234",
						"description":"Sports"
					}
				]
			}
		   ],
	      "productRank": 1,
	      "isReservationRequired": true,
	      "isScheduable": false,
	      "activityLevel": null,
	      "productLocation": {
	        "locationID": "FMT",
	        "locationCode": "FMT",
	        "locationType": "PORT",
	        "operatingHoursStart": 0,
	        "operatingHoursEnd": 0
	      },
	      "productDuration": {
	        "isAtYourLeisure": false,
	        "durationInMinutes": 240,
	        "leadTimeInMinutes": 0,
	        "lagTimeInMinutes": 45
	      },
	      "costType": null,
	      "startingFromPrice": {
	        "currency": "USD",
	        "adultPrice": 59.75,
	        "childPrice": 49.75,
	        "infantPrice": 0
	      },
	      "advisements": [],
	      "preferences": [
	        {
	          "preferenceID": "6",
	          "preferenceName": "Language",
	          "mandatoryPreferenceFlag": true,
	          "preferenceType": "TOUR_LANGUAGE",
	          "preferenceValue": [
	            {
	              "preferenceValueID": "905",
	              "preferenceValueName": "English",
	              "PreferenceValueCode": "ENG"
	            },
	            {
	              "preferenceValueID": "906",
	              "preferenceValueName": "Spanish",
	              "PreferenceValueCode": "SPA"
	            },
	            {
	              "preferenceValueID": "907",
	              "preferenceValueName": "German",
	              "PreferenceValueCode": "GER"
	            },
	            {
	              "preferenceValueID": "908",
	              "preferenceValueName": "Portuguese",
	              "PreferenceValueCode": "POR"
	            },
	            {
	              "preferenceValueID": "909",
	              "preferenceValueName": "Italian",
	              "PreferenceValueCode": "ITA"
	            },
	            {
	              "preferenceValueID": "910",
	              "preferenceValueName": "French",
	              "PreferenceValueCode": "FRE"
	            }
	          ]
	        }
	      ],
	      "restrictions": [
			{
				"restrictionID": "2343",
				"restrictionType": "AGE",
				"isMandatory":true,
				"restrictionDisplayText":"Minimum Age: 8 years",
				"restrictionQuestion":"Are you more than or equal to 8 years?",
				"restrictionAnswers":[
					{
						"restrictionAnswerDisplayText":"YES"
					},
					{
						"restrictionAnswerDisplayText":"NO"
					}
				],
				"restrictionMedia": {
					"mediaItem": [
						{
						"mediaType":"icon",
						"mediaRefLink":"/royal/shared_assets/icons/advisement_meals_r.png"
						}
					]
				}
			}
		  ],
	      "productTitle": "A Day at Dolphin Cove",
	      "productShortDescription": "<p>The lush tropical paradise of Fairchild Botanical Gardens and the historic and architectural masterpiece of Villa Vizcaya combine to make this tour of two of Miami's most celebrated landmarks a truly memorable experience.</p>  <p>Noted as the one place in the continental U.S. where tropical plants can grow year round, Miami is home to the exquisite tropical oasis of the Fairchild Botanical Gardens. One of the world's pre-eminent botanic gardens, this stunning 83-acre site features a new 13,000-square foot visitor center, a conservatory, a museum of plant exploration, vine pergola, winding paths, 11 lakes, lily ponds, overlooks, and scenic vistas. Should you choose, board an open air tram for a narrated tour of the gardens, or take a self guided audio tour of the only outdoor rainforest in the continental United States and explore on your own by foot.</p>  <p>Continuing to the stunning Vizcaya Museum and Gardens, step back in time as this magnificent European-inspired estate offers a glimpse of a vanished lifestyle in America. Winter home of International Harvester vice president James Deering, Vizcaya has been uniquely transformed into a decorative art museum set in the midst of magnificent formal gardens overlooking the beautiful Biscayne Bay. Purchased in 1910, three architects participated in the creation of this estate and over 1,000 craftsmen and artisans worked on the house for two years. Mr. Deering traveled throughout Europe with interior designer Paul Chalfin purchasing furniture and works of art spanning over 400 years of European history. You will enjoy a tour of the estate and gardens followed by free time to explore the unique gift shop featuring replicas of antique pottery, metalwork, tapestry as well as Italian crafts and jewelry.</p>",
	      "productMedia": {
	        "mediaItem": [
	          {
	            "mediaType": "ThumbnailImage",
	            "mediaRefLink": "/content/royal/en_US/images/shore_ex/generic_scuba/body_thumbnail/GenScubaK_147.jpg"
	          },
	          {
	            "mediaType": "HeroImage",
	            "mediaRefLink": "/content/royal/en_US/images/shore_ex/generic_scuba/hero/GenScubaK_175.jpg"
	          }
	        ]
	      }
	    },
	    {
	      "productID": "200000000002696494",
	      "productCode": "CZ36",
	      "productType": {
	        "productTypeID": "1",
	        "productTypeName": "Shore Excursion",
	        "productType": "SHOREX"
	      },
	      "productClass": "SERVICE",
	      "productCategory": [
			{ 
				"categoryid": "12345",
				"categoryDescription": "Shore Excursions",
				"productTags": [
					{
						"tagID": "1234",
						"description":"Adventure"
					}
				]
			}
		   ],
	      "productRank": 1,
	      "isReservationRequired": true,
	      "isScheduable": false,
	      "activityLevel": {
	      	"activityLevelID": "903",
	      	"activityLevelTitle": "Moderate",
	      	"activityLevelDescription": "Full participation may require extended periods of walking over even and uneven surfaces, steep terrain and/or water activity in a slight current. There may be steps, inclines, cobblestone surfaces, and extended periods of standing. Participants with physical limitations should take this into account.",
	      	"activityLevelMedia": {
				"mediaItem": [
					{
						"mediaType":"icon",
						"mediaRefLink":"media/royal/shared_assets/icons/activity-level-mild-blue.png"
					},
					{
						"mediaType":"title",
						"mediaRefLink":"/media/royal/shared_assets/icons/activity-level-mild-red.png"
					}
					
				]
			}
	      },
	      "productLocation": {
	        "locationID": "CZM",
	        "locationCode": "CZM",
	        "locationType": "PORT",
	        "operatingHoursStart": 0,
	        "operatingHoursEnd": 0
	      },
	      "productDuration": {
	        "isAtYourLeisure": false,
	        "durationInMinutes": 150,
	        "leadTimeInMinutes": 0,
	        "lagTimeInMinutes": 45
	      },
	      "costType": null,
	      "startingFromPrice": {
	        "currency": "USD",
	        "adultPrice": 99.75,
	        "childPrice": 99.75,
	        "infantPrice": 0
	      },
	      "advisements": [
	        {
	          "advisementID": "200000000002684251",
	          "advisementName": "Waiver",
	          "advisementType": "WAIVER",
	          "advisementTitle": "Waiver",
	          "advisementDescription": "All participants on this tour are required to complete a waiver and/or release form. This document will be distributed by the tour operator prior to commencing the tour.",
	          "advisementMedia": {
				"mediaItem": [
					{
						"mediaType":"icon",
						"mediaRefLink":"/media/royal/shared_assets/icons/waiver-blue.png"
					}
					
				]
			  }
	        }
	      ],
	      "preferences": [
	        {
	          "preferenceID": "6",
	          "preferenceName": "Language",
	          "mandatoryPreferenceFlag": true,
	          "preferenceType": "TOUR_LANGUAGE",
	          "preferenceValue": [
	            {
	              "preferenceValueID": "905",
	              "preferenceValueName": "English",
	              "PreferenceValueCode": "ENG"
	            },
	            {
	              "preferenceValueID": "906",
	              "preferenceValueName": "Spanish",
	              "PreferenceValueCode": "SPA"
	            },
	            {
	              "preferenceValueID": "907",
	              "preferenceValueName": "German",
	              "PreferenceValueCode": "GER"
	            },
	            {
	              "preferenceValueID": "908",
	              "preferenceValueName": "Portuguese",
	              "PreferenceValueCode": "POR"
	            },
	            {
	              "preferenceValueID": "909",
	              "preferenceValueName": "Italian",
	              "PreferenceValueCode": "ITA"
	            },
	            {
	              "preferenceValueID": "910",
	              "preferenceValueName": "French",
	              "PreferenceValueCode": "FRE"
	            }
	          ]
	        }
	      ],
	      "restrictions": [
	        {
	          "restrictionID": "2",
	          "restrictionType": "AGE",
	          "isMandatory": true,
	          "restrictionDisplayText": "Minimum Age: 12 Years",
	          "restrictionTitle": "2",
	          "restrictionDescription": "Minimum Age: 12 Years",
	          "restrictionQuestion": "Are you more than or equal to 12 years of age?",
	          "restrictionAnswers":[
					{
						"restrictionAnswerDisplayText":"YES"
					},
					{
						"restrictionAnswerDisplayText":"NO"
					}
				],
	          "restrictionMedia": null
	        }
	      ],
	      "productTitle": "Discover Scuba Diving",
	      "productShortDescription": "Discover Scuba Diving",
	      "productLongDescription": "<p><strong><u>Overview:<br>\n</u></strong>This tour has been designed to give first timers an educational and unforgettable diving experience. It's a wonderful introduction to diving for snorkelers who are ready for a little more excitement. You will head out with your instructor, who will guide you in the exploration of this new and amazing world of fish and coral.</p>\n\n<p><strong><u>Highlights:<br>\n</u></strong>- Instruction and orientation from a PADI instructor<br>\n- Dive from the beach (maximum depth of 25 feet)</p>\n\n<p><strong><u>Full Description:<br>\n</u></strong>This tour has been designed for the non-certified diver. After receiving 45 minutes of instruction and orientation from a PADI instructor, you will wear full scuba gear and enter the water directly from the beach. A few minutes are spent in waist-deep water for you to get used to breathing underwater. You will then head out with the instructor, who will guide you in the exploration of this new and amazing world of fish and coral. The dive site reaches a maximum depth of 25 feet.</p>\n\n<p><strong><u>What to Bring:<br>\n</u></strong>- You should always take your SeaPass card (provided onboard the ship) and photo identification when in port<br>\n- Towel (available onboard the ship)<br>\n- All scuba diving equipment is included</p>\n\n<p><strong><u>What to Wear:</u></strong>&nbsp;<br>\n- Wear your bathing suit</p>\n\n<p><strong><u>Important Notes:</u></strong>&nbsp;<br>\n- Some health restrictions apply and participants will be required to complete a waiver and medical forms.</p>",
	      "productMedia": {
	        "mediaItem": [
	          {
	            "mediaType": "ThumbnailImage",
	            "mediaRefLink": "/content/royal/en_US/images/shore_ex/generic_scuba/body_thumbnail/GenScubaK_147.jpg"
	          },
	          {
	            "mediaType": "HeroImage",
	            "mediaRefLink": "/content/royal/en_US/images/shore_ex/generic_scuba/hero/GenScubaK_175.jpg"
	          }
	        ]
	      }
	    }
	  ]
	}
}